{
  "robotWidth": 0.9,
  "robotLength": 0.9,
  "holonomicMode": true,
  "pathFolders": [
    "Left Speaker(Amp)",
    "Middle Speaker",
    "Useful",
    "Right Speaker",
    "Shhhhh"
  ],
  "autoFolders": [
    "Amp",
    "Fiunny",
    "Left",
    "Mid",
    "Useful",
    "Right(Side)"
  ],
  "defaultMaxVel": 3.0,
  "defaultMaxAccel": 3.0,
  "defaultMaxAngVel": 540.0,
  "defaultMaxAngAccel": 720.0,
  "maxModuleSpeed": 4.5
}